0 sll
2 srl
3 sra
4 sllv
6 srlv
7 srav
8 jr
9 jalr
10 movz
11 movn
12 syscall
13 break
16 mfhi
17 mthi
18 mflo
19 mtlo
24 mult
25 multu
26 div
27 divu 
32 add
33 addu
34 sub
35 subu
36 and
37 or
38 xor
39 nor
42 slt
43 sltu
48 tge
49 tgeu
50 tlt
51 tltu
52 teq
54 tne